# .PCD v0.7 - Point Cloud Data file format
VERSION 0.7
FIELDS x y z
SIZE 4 4 4
TYPE F F F
COUNT 1 1 1
WIDTH 1511
HEIGHT 1
VIEWPOINT 0 0 0 1 0 0 0
POINTS 1511
DATA ascii
3.9003813 0.6177597 -1.0665139
3.8763537 0.59662789 -1.0665139
3.8789203 0.57970852 -1.0665139
3.8873506 0.56363904 -1.0665139
3.8897729 0.54667193 -1.0665139
3.8921213 0.52969444 -1.0665139
3.8943954 0.51270688 -1.0665139
3.8767552 0.49318558 -1.0665139
3.8739076 0.47565603 -1.0665139
3.8759463 0.45874846 -1.0665139
3.8590331 0.43968129 -1.0665139
3.879802 0.42490742 -1.0665139
3.881619 0.4079746 -1.0665139
3.5005035 0.79208308 -1.2004417
3.4111784 0.75624001 -1.2004417
3.3870831 0.73540783 -1.2004417
3.3804781 0.71854281 -1.2004417
3.3835812 0.7037859 -1.2004417
3.3591819 0.68343329 -1.2004417
3.3591895 0.66818434 -1.2004417
3.3581467 0.65275759 -1.2004417
3.3560505 0.63716608 -1.2004417
3.3548658 0.62178761 -1.2004417
3.3555787 0.6067875 -1.2004417
3.3601642 0.59248757 -1.2004417
3.3607461 0.57748181 -1.2004417
3.3553436 0.56149197 -1.2004417
3.3528266 0.5460425 -1.2004417
3.359128 0.53203362 -1.2004417
3.3584523 0.51691526 -1.2004417
3.3596869 0.50210857 -1.2004417
3.3588767 0.48701397 -1.2004417
3.3213592 0.46678659 -1.2004417
3.3164282 0.45134607 -1.2004417
3.3183661 0.43687117 -1.2004417
3.3271847 0.42327133 -1.2004417
3.3528209 0.41167465 -1.2004417
3.364516 0.39821669 -1.2004417
3.3662214 0.38353249 -1.2004417
3.3857558 0.37080058 -1.2004417
3.3873415 0.35602394 -1.2004417
3.3888628 0.34124053 -1.2004417
3.3704116 0.32453373 -1.2004417
3.3937032 0.31183752 -1.2004417
3.4348793 0.300513 -1.2004417
3.573684 0.29695022 -1.2004417
3.5749454 0.28135431 -1.2004417
3.5781336 0.26590127 -1.2004417
3.5792599 0.25028622 -1.2004417
3.6022706 0.23610529 -1.2004417
3.6262238 0.22178935 -1.2004417
3.627157 0.20596489 -1.2004417
3.6050527 0.18893281 -1.2004417
3.7776849 0.88952672 -1.3345138
3.3235762 0.76730806 -1.3345138
3.3015337 0.74706084 -1.3345138
3.2774258 0.72658777 -1.3345138
3.2747014 0.71100736 -1.3345138
3.2484281 0.69047475 -1.3345138
3.25141 0.67629427 -1.3345138
3.2494304 0.66110408 -1.3345138
3.2503223 0.64652932 -1.3345138
3.2531126 0.63234103 -1.3345138
3.2499459 0.6170215 -1.3345138
3.2378583 0.60010159 -1.3345138
3.2404461 0.58596808 -1.3345138
3.2311542 0.5697397 -1.3345138
3.2336094 0.55563575 -1.3345138
3.2537563 0.54449207 -1.3345138
3.2827499 0.53462976 -1.3345138
3.2850513 0.52030104 -1.3345138
3.2872903 0.50596237 -1.3345138
3.2894669 0.4916141 -1.3345138
3.2826736 0.47596502 -1.3345138
3.2847192 0.46163717 -1.3345138
3.287693 0.44743538 -1.3345138
3.298537 0.43426064 -1.3345138
3.2914724 0.41872817 -1.3345138
3.2932682 0.40436247 -1.3345138
3.2989733 0.39045924 -1.3345138
3.3006456 0.37606108 -1.3345138
3.3022552 0.36165577 -1.3345138
3.3038018 0.34724355 -1.3345138
3.3112552 0.33342588 -1.3345138
3.3126786 0.31897467 -1.3345138
3.3050766 0.30369386 -1.3345138
3.3023853 0.2889213 -1.3345138
3.3036146 0.27450922 -1.3345138
3.3037841 0.26001343 -1.3345138
3.3048871 0.24559553 -1.3345138
3.3617909 0.23507932 -1.3345138
3.3657782 0.22060475 -1.3345138
3.3786862 0.2066493 -1.3345138
3.4085093 0.19354917 -1.3345138
3.4093213 0.17867495 -1.3345138
3.4100683 0.16379733 -1.3345138
3.4227393 0.14944002 -1.3345138
3.4233587 0.13450412 -1.3345138
3.423913 0.11956567 -1.3345138
3.424402 0.10462495 -1.3345138
3.2628975 0.8742907 -1.468707
3.2434721 0.85393494 -1.468707
3.2471671 0.83977455 -1.468707
3.2498312 0.82535201 -1.468707
3.2534015 0.81116414 -1.468707
3.2569098 0.79696077 -1.468707
3.2603564 0.78274232 -1.468707
3.2520602 0.76575851 -1.468707
3.2553704 0.75156146 -1.468707
3.2586186 0.73735011 -1.468707
3.2608287 0.72290832 -1.468707
3.2639518 0.70867342 -1.468707
3.2631004 0.69359338 -1.468707
3.2621796 0.67853433 -1.468707
3.2651091 0.66429394 -1.468707
3.2669957 0.64984584 -1.468707
3.2698002 0.63558477 -1.468707
3.2646828 0.61981934 -1.468707
3.2526073 0.60283512 -1.468707
3.2512705 0.58792549 -1.468707
3.25282 0.57355994 -1.468707
3.2552917 0.5593614 -1.468707
3.2577014 0.54515225 -1.468707
3.2600491 0.53093266 -1.468707
3.3235712 0.526402 -1.468707
3.4651954 0.53334457 -1.468707
3.4882588 0.5213238 -1.468707
3.4905005 0.50609845 -1.468707
3.4926755 0.49086353 -1.468707
3.3243551 0.45242488 -1.468707
3.264828 0.42982274 -1.468707
3.2418721 0.41241822 -1.468707
3.2436409 0.39826903 -1.468707
3.2453477 0.38411221 -1.468707
3.2469928 0.36994809 -1.468707
3.2515583 0.35610354 -1.468707
3.2590482 0.34253979 -1.468707
3.2615068 0.32841647 -1.468707
3.2629087 0.31418237 -1.468707
3.2642486 0.29994231 -1.468707
3.2655263 0.28569654 -1.468707
3.2667418 0.2714453 -1.468707
3.2828488 0.25836581 -1.468707
3.2819505 0.24389105 -1.468707
3.2849784 0.22970806 -1.468707
3.2989216 0.21622275 -1.468707
3.3058224 0.20219277 -1.468707
3.3066733 0.18776651 -1.468707
3.3174474 0.17386004 -1.468707
3.3221698 0.15957525 -1.468707
3.3088477 0.14446741 -1.468707
3.3344274 0.13101001 -1.468707
3.336966 0.11652942 -1.468707
3.3374426 0.10196809 -1.468707
3.3278592 0.087143064 -1.468707
3.3282077 0.072621755 -1.468707
3.2550237 0.91801161 -1.6030635
3.2483983 0.90086055 -1.6030635
3.2522981 0.88667822 -1.6030635
3.2503405 0.87092608 -1.6030635
3.2473402 0.85495335 -1.6030635
3.2510397 0.84077603 -1.6030635
3.2508004 0.82559812 -1.6030635
3.2543719 0.81140602 -1.6030635
3.2539959 0.79624772 -1.6030635
3.2574391 0.78204197 -1.6030635
3.2471931 0.7646125 -1.6030635
3.2690115 0.75471079 -1.6030635
3.2761748 0.7413227 -1.6030635
3.2793782 0.72702068 -1.6030635
3.2600429 0.70782471 -1.6030635
3.253319 0.69151431 -1.6030635
3.25141 0.67629427 -1.6030635
3.2543299 0.66210091 -1.6030635
3.2620919 0.64887041 -1.6030635
3.2648921 0.63463074 -1.6030635
3.2627177 0.61944634 -1.6030635
3.263423 0.60483968 -1.6030635
3.2542226 0.58845931 -1.6030635
3.2488809 0.57286537 -1.6030635
3.2474072 0.55800664 -1.6030635
3.2537563 0.54449207 -1.6030635
3.249192 0.52916455 -1.6030635
3.2514701 0.51498228 -1.6030635
3.2536862 0.50079018 -1.6030635
3.2558403 0.48658857 -1.6030635
3.2569427 0.47223422 -1.6030635
3.2589722 0.45801866 -1.6030635
3.2609396 0.4437944 -1.6030635
3.2767253 0.43138906 -1.6030635
3.3361127 0.42440712 -1.6030635
3.3379328 0.4098466 -1.6030635
3.3396893 0.39527828 -1.6030635
3.24898 0.3701745 -1.6030635
3.247582 0.35566807 -1.6030635
3.2431359 0.34086731 -1.6030635
3.2445924 0.32671326 -1.6030635
3.2459869 0.31255299 -1.6030635
3.2473199 0.29838678 -1.6030635
3.2605453 0.28526074 -1.6030635
3.2627554 0.27111408 -1.6030635
3.2639074 0.25687507 -1.6030635
3.2669916 0.24277942 -1.6030635
3.2680199 0.22852221 -1.6030635
3.2689857 0.21426065 -1.6030635
3.2708879 0.20005606 -1.6030635
3.2827117 0.18640588 -1.6030635
3.2874885 0.17228997 -1.6030635
3.2932031 0.15818389 -1.6030635
3.2888668 0.14359502 -1.6030635
3.2944582 0.12943961 -1.6030635
3.3149793 0.11576163 -1.6030635
3.3154528 0.10129625 -1.6030635
3.3158634 0.08682894 -1.6030635
3.3482029 0.073058046 -1.6030635
3.34849 0.05844811 -1.6030635
3.302717 0.043234933 -1.6030635
3.2540612 0.91774017 -1.7376299
3.2551436 0.90273124 -1.7376299
3.2503686 0.88615215 -1.7376299
3.2522724 0.87144375 -1.7376299
3.2560437 0.85724473 -1.7376299
3.259753 0.8430295 -1.7376299
3.2789083 0.83273661 -1.7376299
3.2825105 0.81842178 -1.7376299
3.2860503 0.80409139 -1.7376299
3.2661905 0.78414297 -1.7376299
3.264714 0.76873809 -1.7376299
3.2631652 0.75336111 -1.7376299
3.2625201 0.73823291 -1.7376299
3.2539947 0.72139323 -1.7376299
3.2571113 0.70718819 -1.7376299
3.2601659 0.69296968 -1.7376299
3.2631586 0.67873794 -1.7376299
3.266089 0.66449332 -1.7376299
3.2689574 0.65023607 -1.7376299
3.2648921 0.63463074 -1.7376299
3.2528932 0.61758107 -1.7376299
3.2467077 0.60174173 -1.7376299
3.2483184 0.58739161 -1.7376299
3.2301695 0.56956601 -1.7376299
3.2464216 0.55783725 -1.7376299
3.2488248 0.54366684 -1.7376299
3.2462311 0.52868229 -1.7376299
3.248507 0.51451296 -1.7376299
3.250721 0.50033385 -1.7376299
3.2528732 0.48614514 -1.7376299
3.2549634 0.47194722 -1.7376299
3.2777872 0.46066296 -1.7376299
3.2857113 0.4471657 -1.7376299
3.3798356 0.44496378 -1.7376299
3.3817449 0.43021229 -1.7376299
3.3835897 0.4154526 -1.7376299
3.2542853 0.38517004 -1.7376299
3.2400379 0.36915568 -1.7376299
3.2336652 0.35414395 -1.7376299
3.2351797 0.34003109 -1.7376299
3.2326527 0.32551101 -1.7376299
3.2340422 0.31140286 -1.7376299
3.2413449 0.29783776 -1.7376299
3.2485909 0.28421488 -1.7376299
3.2597659 0.27086565 -1.7376299
3.2619135 0.25671816 -1.7376299
3.2630026 0.24248298 -1.7376299
3.2640295 0.22824319 -1.7376299
3.2580094 0.21354121 -1.7376299
3.2569139 0.19920139 -1.7376299
3.2577519 0.18498857 -1.7376299
3.2585282 0.17077222 -1.7376299
3.2592423 0.15655263 -1.7376299
3.2768781 0.14307159 -1.7376299
3.2774713 0.1287722 -1.7376299
3.2810001 0.11457505 -1.7376299
3.3014596 0.10086871 -1.7376299
3.3018682 0.08646246 -1.7376299
3.3022139 0.072054565 -1.7376299
3.3024969 0.057645299 -1.7376299
3.3317146 0.043614533 -1.7376299
3.3498724 0.029233893 -1.7376299
3.3599679 0.014660719 -1.7376299
3.3599999 0 -1.7376299
3.3599679 -0.014660719 -1.7376299
3.3100967 0.85604924 -1.8723327
3.2663081 0.82953662 -1.8723327
3.2698965 0.8152768 -1.8723327
3.2491393 0.79505932 -1.8723327
3.2467432 0.77947408 -1.8723327
3.24914 0.76507092 -1.8723327
3.2534215 0.75111157 -1.8723327
3.2556927 0.73668802 -1.8723327
3.2578998 0.72225899 -1.8723327
3.2600429 0.70782471 -1.8723327
3.2591877 0.69276178 -1.8723327
3.2572844 0.6775161 -1.8723327
3.2572696 0.66269904 -1.8723327
3.2562072 0.64769989 -1.8723327
3.2609656 0.6338675 -1.8723327
3.2587879 0.61870021 -1.8723327
3.2644062 0.60502195 -1.8723327
3.2670152 0.59077257 -1.8723327
3.2705464 0.57668561 -1.8723327
3.2730317 0.5624097 -1.8723327
3.280386 0.54894835 -1.8723327
3.4929802 0.56886792 -1.8723327
3.495429 0.55362159 -1.8723327
3.4978113 0.53836465 -1.8723327
3.3507857 0.50077826 -1.8723327
3.2420979 0.47008184 -1.8723327
3.2302544 0.45398265 -1.8723327
3.2322047 0.43988374 -1.8723327
3.2340932 0.42577645 -1.8723327
3.2369123 0.41178724 -1.8723327
3.238678 0.39765966 -1.8723327
3.2423685 0.38375959 -1.8723327
3.2440121 0.36960849 -1.8723327
3.2316771 0.35392621 -1.8723327
3.2331908 0.33982202 -1.8723327
3.253547 0.32761496 -1.8723327
3.2549455 0.31341562 -1.8723327
3.2562821 0.29921028 -1.8723327
3.2625377 0.28543505 -1.8723327
3.263752 0.27119687 -1.8723327
3.2609167 0.25663969 -1.8723327
3.260011 0.24226065 -1.8723327
3.263032 0.22817342 -1.8723327
3.2639966 0.21393363 -1.8723327
3.2629027 0.19956768 -1.8723327
3.2637424 0.18532872 -1.8723327
3.2685144 0.17129558 -1.8723327
3.2692308 0.15703242 -1.8723327
3.2678866 0.14267902 -1.8723327
3.2704766 0.12849738 -1.8723327
3.2770026 0.11443545 -1.8723327
3.287466 0.10044117 -1.8723327
3.3148637 0.086802758 -1.8723327
3.3212094 0.072469048 -1.8723327
3.315495 0.05787218 -1.8723327
3.3217154 0.043483637 -1.8723327
3.3318732 0.029076817 -1.8723327
3.3349683 0.014551637 -1.8723327
3.332 0 -1.8723327
3.3319683 -0.014538546 -1.8723327
3.4681504 0.81664097 -2.007102
3.3800898 0.78035522 -2.007102
3.3249419 0.75235754 -2.007102
3.2705917 0.72507268 -2.007102
3.2688382 0.70973432 -2.007102
3.2660348 0.69421715 -2.007102
3.2592423 0.67792338 -2.007102
3.2621694 0.66369587 -2.007102
3.2571878 0.64789498 -2.007102
3.2560573 0.63291341 -2.007102
3.2568231 0.6183272 -2.007102
3.2535906 0.60301733 -2.007102
3.2552066 0.58863723 -2.007102
3.2577441 0.5744282 -2.007102
3.2602193 0.56020814 -2.007102
3.2586877 0.54531729 -2.007102
3.2561011 0.53028971 -2.007102
3.2573962 0.51592088 -2.007102
3.2457793 0.4995732 -2.007102
3.2479281 0.4854061 -2.007102
3.2500153 0.47122976 -2.007102
3.2530305 0.45718363 -2.007102
3.2569761 0.44325501 -2.007102
3.2598708 0.42917013 -2.007102
3.2676642 0.41569939 -2.007102
3.2634916 0.40070641 -2.007102
3.2642159 0.38634542 -2.007102
3.2628899 0.37175936 -2.007102
3.2624929 0.35730109 -2.007102
3.2540755 0.34201714 -2.007102
3.253547 0.32761496 -2.007102
3.2519593 0.31312808 -2.007102
3.2503073 0.29866129 -2.007102
3.2426138 0.28369194 -2.007102
3.2438207 0.26954073 -2.007102
3.2359936 0.25467822 -2.007102
3.2370741 0.24055617 -2.007102
3.2430806 0.2267783 -2.007102
3.25302 0.2132142 -2.007102
3.2629027 0.19956768 -2.007102
3.2637424 0.18532872 -2.007102
3.2575295 0.17071989 -2.007102
3.2652354 0.1568405 -2.007102
3.2678866 0.14267902 -2.007102
3.2684782 0.12841886 -2.007102
3.2879958 0.11481935 -2.007102
3.2884655 0.10047171 -2.007102
3.2908719 0.08617451 -2.007102
3.3052132 0.072120011 -2.007102
3.2914987 0.057453323 -2.007102
3.3057168 0.043274201 -2.007102
3.3058741 0.028849926 -2.007102
3.3109684 0.014446917 -2.007102
3.312 0 -2.007102
3.3169684 -0.014473096 -2.007102
3.3168738 -0.028945919 -2.007102
3.3187156 -0.043444369 -2.007102
3.3204942 -0.057959441 -2.007102
3.323209 -0.072512679 -2.007102
3.3438537 -0.08756189 -2.007102
3.3434398 -0.10215133 -2.007102
3.321975 -0.11600593 -2.007102
3.8283007 0.90144515 -2.1419947
3.3615768 0.77608114 -2.1419947
3.3005583 0.74684012 -2.1419947
3.2871888 0.7287522 -2.1419947
3.2649291 0.70888561 -2.1419947
3.2591877 0.69276178 -2.1419947
3.2602215 0.67812705 -2.1419947
3.2602096 0.66329712 -2.1419947
3.2630727 0.64906549 -2.1419947
3.2658737 0.63482153 -2.1419947
3.2578056 0.6185137 -2.1419947
3.2604733 0.60429299 -2.1419947
3.2561908 0.58881521 -2.1419947
3.2587287 0.57460183 -2.1419947
3.259234 0.56003881 -2.1419947
3.2557287 0.54482216 -2.1419947
3.25314 0.52980751 -2.1419947
3.2554207 0.51560801 -2.1419947
3.2556629 0.50109446 -2.1419947
3.2528732 0.48614514 -2.1419947
3.2420979 0.47008184 -2.1419947
3.2569916 0.45774034 -2.1419947
3.2440948 0.44150195 -2.1419947
3.2390504 0.42642906 -2.1419947
3.2349281 0.41153485 -2.1419947
3.2366929 0.39741594 -2.1419947
3.2383962 0.38328946 -2.1419947
3.2231472 0.36723122 -2.1419947
3.2247188 0.35316414 -2.1419947
3.2451251 0.34107637 -2.1419947
3.2465823 0.32691365 -2.1419947
3.2439961 0.3123613 -2.1419947
3.2453282 0.29820377 -2.1419947
3.2456024 0.2839534 -2.1419947
3.2458138 0.26970634 -2.1419947
3.2429721 0.25522745 -2.1419947
3.2410631 0.24085259 -2.1419947
3.2420831 0.22670855 -2.1419947
3.2230842 0.21125211 -2.1419947
3.2409437 0.1982246 -2.1419947
3.2417777 0.18408148 -2.1419947
3.2425501 0.16993485 -2.1419947
3.2432606 0.15578498 -2.1419947
3.2449086 0.14167577 -2.1419947
3.2474945 0.1275944 -2.1419947
3.2540166 0.11363276 -2.1419947
3.255481 0.09946394 -2.1419947
3.2738776 0.085729502 -2.1419947
3.2742207 0.071443751 -2.1419947
3.2745011 0.05715663 -2.1419947
3.291718 0.043090947 -2.1419947
3.2918746 0.028727755 -2.1419947
3.2729688 0.014281111 -2.1419947
3.253 0 -2.1419947
3.1589699 -0.013783694 -2.1419947
3.1588798 -0.027567126 -2.1419947
3.1457305 -0.041179869 -2.1419947
3.1585188 -0.055132151 -2.1419947
3.1792433 -0.069371335 -2.1419947
3.1889069 -0.083504468 -2.1419947
3.1945093 -0.097601086 -2.1419947
3.2010489 -0.11178309 -2.1419947
3.2964566 -0.12951814 -2.1419947
3.3248324 -0.14516532 -2.1419947
3.3291616 -0.1599111 -2.1419947
3.3414145 -0.17511611 -2.1419947
3.3406186 -0.18969406 -2.1419947
3.3217926 -0.20316954 -2.1419947
3.6501722 0.85950148 -2.2770705
3.3674231 0.77743083 -2.2770705
3.3044598 0.74772292 -2.2770705
3.2744968 0.72593844 -2.2770705
3.2659063 0.7090978 -2.2770705
3.2689693 0.69484085 -2.2770705
3.2749071 0.68118167 -2.2770705
3.2778482 0.66688573 -2.2770705
3.2709188 0.65062624 -2.2770705
3.2766716 0.63692045 -2.2770705
3.2764721 0.62205768 -2.2770705
3.2673562 0.60556865 -2.2770705
3.2699673 0.59130639 -2.2770705
3.2636528 0.57547009 -2.2770705
3.2631762 0.56071621 -2.2770705
3.2577014 0.54515225 -2.2770705
3.2590621 0.53077197 -2.2770705
3.2524576 0.51513869 -2.2770705
3.250721 0.50033385 -2.2770705
3.2528732 0.48614514 -2.2770705
3.2391291 0.46965134 -2.2770705
3.2411473 0.45551357 -2.2770705
3.243104 0.44136709 -2.2770705
3.2420247 0.42682064 -2.2770705
3.2388961 0.41203964 -2.2770705
3.2446334 0.39839089 -2.2770705
3.2423685 0.38375959 -2.2770705
3.2440121 0.36960849 -2.2770705
3.2495701 0.3558858 -2.2770705
3.251092 0.34170353 -2.2770705
3.252552 0.32751477 -2.2770705
3.2539501 0.31331977 -2.2770705
3.2393534 0.29765478 -2.2770705
3.2406213 0.28351763 -2.2770705
3.2278757 0.26821578 -2.2770705
3.2290154 0.25412902 -2.2770705
3.2330852 0.24025972 -2.2770705
3.2480686 0.22712708 -2.2770705
3.2350585 0.21203695 -2.2770705
3.2489288 0.19871299 -2.2770705
3.2497649 0.18453503 -2.2770705
3.2495406 0.1703012 -2.2770705
3.2502527 0.15612084 -2.2770705
3.2519019 0.14198111 -2.2770705
3.2534897 0.12782995 -2.2770705
3.2540166 0.11363276 -2.2770705
3.2584796 0.099555552 -2.2770705
3.2648809 0.085493915 -2.2770705
3.2652228 0.071247414 -2.2770705
3.2805002 0.057261344 -2.2770705
3.2887182 0.043051679 -2.2770705
3.2888749 0.028701575 -2.2770705
3.2889688 0.014350925 -2.2770705
4.5896277 -0.20038746 -2.2770705
4.5887094 -0.22041152 -2.2770705
4.5877042 -0.24043138 -2.2770705
3.515337 -0.1996153 -2.2770705
3.3746939 -0.20640512 -2.2770705
3.3567975 -0.22001612 -2.2770705
3.3558054 -0.23466077 -2.2770705
3.3617303 -0.24981973 -2.2770705
3.3705776 -0.2652702 -2.2770705
3.3594222 -0.27914646 -2.2770705
3.3581724 -0.29380202 -2.2770705
3.5041654 0.8251214 -2.4123938
3.3791153 0.78013027 -2.4123938
3.3298187 0.75346106 -2.4123938
3.2618051 0.72312474 -2.4123938
3.2580886 0.70740038 -2.4123938
3.2611442 0.69317758 -2.4123938
3.2641375 0.67894161 -2.4123938
3.2670689 0.6646927 -2.4123938
3.2699382 0.65043116 -2.4123938
3.2658737 0.63482153 -2.4123938
3.2646828 0.61981934 -2.4123938
3.263423 0.60483968 -2.4123938
3.2689831 0.59112847 -2.4123938
3.2715313 0.57685924 -2.4123938
3.2720461 0.56224036 -2.4123938
3.2744682 0.54795808 -2.4123938
3.2768281 0.5336653 -2.4123938
3.2475193 0.51435649 -2.4123938
3.2418258 0.4989647 -2.4123938
3.2439721 0.48481488 -2.4123938
3.2450669 0.4705123 -2.4123938
3.2451084 0.45607024 -2.4123938
3.2401314 0.44096255 -2.4123938
3.2340932 0.42577645 -2.4123938
3.2339361 0.41140863 -2.4123938
3.2357004 0.39729407 -2.4123938
3.2364101 0.38305438 -2.4123938
3.2380507 0.36892927 -2.4123938
3.2396295 0.35479715 -2.4123938
3.2411468 0.34065825 -2.4123938
3.2416074 0.32641271 -2.4123938
3.2430007 0.31226546 -2.4123938
3.2443326 0.29811227 -2.4123938
3.2356403 0.28308186 -2.4123938
3.2288723 0.2682986 -2.4123938
3.2300122 0.25420746 -2.4123938
3.2310905 0.24011151 -2.4123938
3.2321076 0.22601098 -2.4123938
3.2380521 0.21223316 -2.4123938
3.2609065 0.19944558 -2.4123938
3.2397809 0.1839681 -2.4123938
3.2545338 0.17056288 -2.4123938
3.2412629 0.15568903 -2.4123938
3.2409124 0.14150129 -2.4123938
3.2365029 0.12716255 -2.4123938
3.2420239 0.11321396 -2.4123938
3.242487 0.099066935 -2.4123938
3.2778764 0.085834213 -2.4123938
3.2782197 0.071531005 -2.4123938
3.2785006 0.057226442 -2.4123938
3.2787192 0.042920783 -2.4123938
3.2788751 0.028614311 -2.4123938
3.2719688 0.014276748 -2.4123938
3.257 0 -2.4123938
4.5245452 -0.27673304 -2.4123938
4.5482411 -0.29810748 -2.4123938
4.548892 -0.31808951 -2.4123938
4.5454664 -0.3377865 -2.4123938
4.5190263 -0.35565507 -2.4123938
3.4361579 -0.2855227 -2.4123938
3.4129632 -0.29859558 -2.4123938
3.4056528 -0.31293553 -2.4123938
3.4042549 -0.32779247 -2.4123938
3.4087622 -0.34324428 -2.4123938
3.4012649 -0.35748735 -2.4123938
3.3996727 -0.37232471 -2.4123938
3.5168192 0.82810104 -2.5479102
3.3752179 0.77923048 -2.5479102
3.3171391 0.75059199 -2.5479102
3.2598524 0.72269189 -2.5479102
3.2492933 0.70549077 -2.5479102
3.2523408 0.69130635 -2.5479102
3.2553263 0.67710882 -2.5479102
3.2582498 0.66289836 -2.5479102
3.261111 0.64867532 -2.5479102
3.2648921 0.63463074 -2.5479102
3.2676301 0.62037897 -2.5479102
3.2575235 0.60374629 -2.5479102
3.2748873 0.59219611 -2.5479102
3.2774403 0.57790112 -2.5479102
3.2621906 0.56054688 -2.5479102
3.2557287 0.54482216 -2.5479102
3.2501791 0.52932525 -2.5479102
3.2386301 0.51294863 -2.5479102
3.2408373 0.49881259 -2.5479102
3.2410049 0.48437145 -2.5479102
3.2351704 0.46907738 -2.5479102
3.2371864 0.45495686 -2.5479102
3.2331953 0.44001859 -2.5479102
3.2311189 0.42538485 -2.5479102
3.2150881 0.40901086 -2.5479102
3.2317302 0.39680657 -2.5479102
3.2334309 0.38270175 -2.5479102
3.23507 0.36858967 -2.5479102
3.2366474 0.35447055 -2.5479102
3.2381632 0.34034467 -2.5479102
3.2495673 0.32721421 -2.5479102
3.2519593 0.31312808 -2.5479102
3.2532947 0.2989358 -2.5479102
3.2545681 0.28473783 -2.5479102
3.2557795 0.27053443 -2.5479102
3.2419751 0.25514898 -2.5479102
3.2360768 0.24048205 -2.5479102
3.2370954 0.22635975 -2.5479102
3.2450373 0.21269098 -2.5479102
3.2399457 0.19816355 -2.5479102
3.2527602 0.18470511 -2.5479102
3.2705116 0.17140026 -2.5479102
3.2542481 0.15631275 -2.5479102
3.2499039 0.14189386 -2.5479102
3.2554882 0.12790848 -2.5479102
3.2740045 0.11433075 -2.5479102
3.2794697 0.10019686 -2.5479102
3.2798758 0.085886568 -2.5479102
3.2802193 0.071574636 -2.5479102
3.275501 0.057174083 -2.5479102
3.2757194 0.042881515 -2.5479102
3.2758753 0.028588131 -2.5479102
3.2759688 0.014294202 -2.5479102
3.2550001 0 -2.5479102
4.4801464 -0.35259518 -2.5479102
4.4785652 -0.37214008 -2.5479102
4.4768991 -0.39167792 -2.5479102
4.4681768 -0.41056776 -2.5479102
3.4769189 -0.33478922 -2.5479102
3.4425912 -0.34665069 -2.5479102
3.4350786 -0.36104131 -2.5479102
3.4334705 -0.37602618 -2.5479102
3.4317973 -0.39100391 -2.5479102
3.4300585 -0.40597418 -2.5479102
3.4203141 -0.41996175 -2.5479102
3.5528343 0.83658141 -2.6835699
3.3713205 0.77833062 -2.6835699
3.3151886 0.75015056 -2.6835699
3.2754731 0.72615492 -2.6835699
3.2639518 0.70867342 -2.6835699
3.2670131 0.69442505 -2.6835699
3.2700119 0.68016344 -2.6835699
3.2670689 0.6646927 -2.6835699
3.2728806 0.65101641 -2.6835699
3.2756898 0.6367296 -2.6835699
3.2784369 0.62243068 -2.6835699
3.2673562 0.60556865 -2.6835699
3.2699673 0.59130639 -2.6835699
3.2587287 0.57460183 -2.6835699
3.261205 0.56037748 -2.6835699
3.2636189 0.54614252 -2.6835699
3.2659709 0.53189713 -2.6835699
3.2583838 0.51607728 -2.6835699
3.250721 0.50033385 -2.6835699
3.2489171 0.48555392 -2.6835699
3.2490256 0.47108626 -2.6835699
3.2262933 0.45342597 -2.6835699
3.2282412 0.43934432 -2.6835699
3.2301273 0.42525434 -2.6835699
3.2319522 0.41115624 -2.6835699
3.2366929 0.39741594 -2.6835699
3.2383962 0.38328946 -2.6835699
3.2400379 0.36915568 -2.6835699
3.2316771 0.35392621 -2.6835699
3.2331908 0.33982202 -2.6835699
3.2286727 0.32511026 -2.6835699
3.2300606 0.31101948 -2.6835699
3.2373619 0.29747176 -2.6835699
3.2386289 0.28334332 -2.6835699
3.233855 0.26871264 -2.6835699
3.2409782 0.25507051 -2.6835699
3.2500384 0.24151957 -2.6835699
3.2510612 0.22733635 -2.6835699
3.2520223 0.2131488 -2.6835699
3.2579119 0.19926244 -2.6835699
3.2597487 0.18510196 -2.6835699
3.2545338 0.17056288 -2.6835699
3.2552469 0.15636072 -2.6835699
3.2529011 0.14202473 -2.6835699
3.2534897 0.12782995 -2.6835699
3.2540166 0.11363276 -2.6835699
3.2724729 0.099983089 -2.6835699
3.2728782 0.085703328 -2.6835699
3.2752204 0.071465567 -2.6835699
3.2735014 0.057139177 -2.6835699
3.2737195 0.042855337 -2.6835699
3.2818751 0.02864049 -2.6835699
3.2819688 0.014320381 -2.6835699
3.266 0 -2.6835699
4.4181237 -0.38653573 -2.6835699
4.4163947 -0.40580967 -2.6835699
4.4145823 -0.42507592 -2.6835699
4.3878112 -0.44182935 -2.6835699
4.3540168 -0.4576256 -2.6835699
3.4752209 -0.3805986 -2.6835699
3.4536557 -0.39349437 -2.6835699
3.4409821 -0.40726709 -2.6835699
3.4391725 -0.42227727 -2.6835699
3.4372971 -0.43727943 -2.6835699
3.3966901 -0.44718274 -2.6835699
3.4282417 0.80724376 -2.8193898
3.3849616 0.78147995 -2.8193898
3.3405476 0.7558887 -2.8193898
3.2803545 0.72723711 -2.8193898
3.2747014 0.71100736 -2.8193898
3.2767944 0.69650418 -2.8193898
3.2602215 0.67812705 -2.8193898
3.2504103 0.66130346 -2.8193898
3.2532647 0.64711457 -2.8193898
3.2688186 0.63539398 -2.8193898
3.2578056 0.6185137 -2.8193898
3.2604733 0.60429299 -2.8193898
3.2630789 0.59006077 -2.8193898
3.2656226 0.57581735 -2.8193898
3.2671185 0.56139362 -2.8193898
3.2616465 0.54581243 -2.8193898
3.2639971 0.53157568 -2.8193898
3.2643099 0.51701593 -2.8193898
3.2586279 0.50155079 -2.8193898
3.2439721 0.48481488 -2.8193898
3.2460566 0.4706558 -2.8193898
3.2451084 0.45607024 -2.8193898
3.2341862 0.44015345 -2.8193898
3.2360761 0.42603749 -2.8193898
3.2398882 0.41216582 -2.8193898
3.2317302 0.39680657 -2.8193898
3.2364101 0.38305438 -2.8193898
3.2450056 0.36972171 -2.8193898
3.2396295 0.35479715 -2.8193898
3.2411468 0.34065825 -2.8193898
3.2455873 0.32681346 -2.8193898
3.2469823 0.31264883 -2.8193898
3.2274039 0.29655674 -2.8193898
3.228667 0.28247178 -2.8193898
3.2298689 0.26838139 -2.8193898
3.231009 0.25428593 -2.8193898
3.2540274 0.241816 -2.8193898
3.2550516 0.22761537 -2.8193898
3.2560136 0.21341041 -2.8193898
3.2549176 0.19907929 -2.8193898
3.2407794 0.18402478 -2.8193898
3.2335625 0.16946383 -2.8193898
3.2262802 0.15496935 -2.8193898
3.2269258 0.14089063 -2.8193898
3.2275097 0.12680921 -2.8193898
3.2390256 0.11310927 -2.8193898
3.2394884 0.098975323 -2.8193898
3.2448876 0.084970377 -2.8193898
3.2512262 0.070942007 -2.8193898
3.2515047 0.056755226 -2.8193898
3.2637203 0.042724442 -2.8193898
3.2758753 0.028588131 -2.8193898
3.2759688 0.014294202 -2.8193898
3.276 0 -2.8193898
3.3019686 -0.014407647 -2.8193898
3.9398501 -0.034382548 -2.8193898
4.001657 -0.052384563 -2.8193898
4.0993757 -0.071554869 -2.8193898
4.1850038 -0.09131711 -2.8193898
4.194562 -0.10983848 -2.8193898
4.1970415 -0.12823121 -2.8193898
4.1964421 -0.14654298 -2.8193898
4.2057552 -0.16524456 -2.8193898
4.1920061 -0.18302695 -2.8193898
4.182178 -0.20088442 -2.8193898
4.181262 -0.21913065 -2.8193898
4.1622949 -0.23635224 -2.8193898
4.1592278 -0.25438926 -2.8193898
4.1580782 -0.27253485 -2.8193898
4.1448789 -0.28983814 -2.8193898
4.2204547 -0.35069275 -2.8193898
4.4739103 -0.39141643 -2.8193898
4.4880929 -0.4123978 -2.8193898
4.4862509 -0.4319768 -2.8193898
4.484323 -0.45154759 -2.8193898
4.4663978 -0.46943733 -2.8193898
4.4623189 -0.4887034 -2.8193898
3.4834628 -0.39689046 -2.8193898
3.4300585 -0.40597418 -2.8193898
3.4282544 -0.4209367 -2.8193898
3.4263852 -0.43589124 -2.8193898
3.4244506 -0.45083746 -2.8193898
3.4125421 -0.46442661 -2.8193898
3.6637995 0.8627103 -2.95539
3.3752179 0.77923048 -2.95539
3.3512762 0.7583164 -2.95539
3.2627811 0.72334117 -2.95539
3.2649291 0.70888561 -2.95539
3.2601659 0.69296968 -2.95539
3.2631586 0.67873794 -2.95539
3.2709887 0.66549015 -2.95539
3.2679765 0.65004092 -2.95539
3.2707818 0.63577557 -2.95539
3.2656651 0.62000591 -2.95539
3.2663729 0.60538644 -2.95539
3.2679992 0.59095049 -2.95539
3.2646377 0.57564372 -2.95539
3.2671185 0.56139362 -2.95539
3.2695367 0.54713279 -2.95539
3.2472181 0.52884305 -2.95539
3.2494946 0.51466942 -2.95539
3.2497327 0.50018167 -2.95539
3.2479281 0.4854061 -2.95539
3.2539737 0.47180375 -2.95539
3.2520404 0.45704445 -2.95539
3.2421131 0.44123223 -2.95539
3.2410333 0.42669013 -2.95539
3.2240162 0.41014665 -2.95539
3.225775 0.39607537 -2.95539
3.2274725 0.38199654 -2.95539
3.2410314 0.36926889 -2.95539
3.2495701 0.3558858 -2.95539
3.251092 0.34170353 -2.95539
3.252552 0.32751477 -2.95539
3.2529547 0.31322393 -2.95539
3.2413449 0.29783776 -2.95539
3.2426138 0.28369194 -2.95539
3.2438207 0.26954073 -2.95539
3.2339997 0.25452131 -2.95539
3.2350795 0.24040794 -2.95539
3.2410855 0.22663878 -2.95539
3.2500265 0.21301799 -2.95539
3.2429399 0.1983467 -2.95539
3.2457714 0.18430825 -2.95539
3.2465446 0.1701442 -2.95539
3.2462573 0.15592892 -2.95539
3.2449086 0.14167577 -2.95539
3.2454958 0.12751588 -2.95539
3.2460215 0.11335357 -2.95539
3.246485 0.099189088 -2.95539
3.2518852 0.08515361 -2.95539
3.2592242 0.071116522 -2.95539
3.2625031 0.056947201 -2.95539
3.2657201 0.042750619 -2.95539
3.2698755 0.02853577 -2.95539
3.269969 0.014268021 -2.95539
3.296 0 -2.95539
3.3059685 -0.014425101 -2.95539
3.3258734 -0.029024458 -2.95539
3.3277149 -0.043562174 -2.95539
3.3274932 -0.058081608 -2.95539
3.3342063 -0.07275264 -2.95539
3.3408549 -0.087483361 -2.95539
3.3404412 -0.10205971 -2.95539
3.3439617 -0.11677372 -2.95539
3.3494158 -0.1315989 -2.95539
3.3488097 -0.14621219 -2.95539
3.3481398 -0.16082269 -2.95539
3.3623857 -0.17621517 -2.95539
3.3585896 -0.19071454 -2.95539
3.3577254 -0.20536728 -2.95539
3.359791 -0.22021234 -2.95539
3.3587983 -0.23487005 -2.95539
3.3687112 -0.25033849 -2.95539
3.3675869 -0.26503482 -2.95539
3.3683915 -0.27989173 -2.95539
3.3661418 -0.29449925 -2.95539
3.3658206 -0.30927548 -2.95539
3.3863378 -0.32606724 -2.95539
3.3978174 -0.34214222 -2.95539
3.4131992 -0.3587417 -2.95539
3.4165716 -0.37417546 -2.95539
3.4268293 -0.39043787 -2.95539
3.4320445 -0.40620926 -2.95539
3.433217 -0.42154607 -2.95539
3.4452331 -0.43828902 -2.95539
3.4432881 -0.45331746 -2.95539
3.4244325 -0.46604481 -2.95539
3.583009 0.84368664 -3.0915956
3.3722949 0.77855557 -3.0915956
3.3629804 0.76096475 -3.0915956
3.2784021 0.7268042 -3.0915956
3.2639518 0.70867342 -3.0915956
3.2670131 0.69442505 -3.0915956
3.2700119 0.68016344 -3.0915956
3.2729485 0.66588891 -3.0915956
3.2787652 0.65218693 -3.0915956
3.2815797 0.63787448 -3.0915956
3.2813842 0.62299025 -3.0915956
3.2830882 0.60848445 -3.0915956
3.2601268 0.58952695 -3.0915956
3.2626681 0.5752964 -3.0915956
3.2631762 0.56071621 -3.0915956
3.2655916 0.54647261 -3.0915956
3.266958 0.53205788 -3.0915956
3.2573962 0.51592088 -3.0915956
3.2467675 0.49972531 -3.0915956
3.240016 0.48422363 -3.0915956
3.2539737 0.47180375 -3.0915956
3.2421377 0.45565274 -3.0915956
3.2411222 0.44109738 -3.0915956
3.2430162 0.42695117 -3.0915956
3.2279842 0.41065145 -3.0915956
3.2138643 0.39461294 -3.0915956
3.2155557 0.38058609 -3.0915956
3.216192 0.36643881 -3.0915956
3.2177603 0.35240206 -3.0915956
3.2272236 0.33919486 -3.0915956
3.2286727 0.32511026 -3.0915956
3.2350376 0.3114987 -3.0915956
3.2483156 0.29847828 -3.0915956
3.2515795 0.28447634 -3.0915956
3.2507966 0.27012038 -3.0915956
3.2519443 0.25593358 -3.0915956
3.2639999 0.24255709 -3.0915956
3.265027 0.22831294 -3.0915956
3.2689857 0.21426065 -3.0915956
3.2718859 0.20011711 -3.0915956
3.272728 0.18583895 -3.0915956
3.2715104 0.1714526 -3.0915956
3.2592423 0.15655263 -3.0915956
3.2539001 0.14206834 -3.0915956
3.2464952 0.12755515 -3.0915956
3.235028 0.11296967 -3.0915956
3.2254949 0.098547779 -3.0915956
3.2258942 0.084473014 -3.0915956
3.23423 0.070571154 -3.0915956
3.2365069 0.056493439 -3.0915956
3.2487216 0.042528097 -3.0915956
3.2768753 0.028596858 -3.0915956
3.2779689 0.014302928 -3.0915956
3.3010001 0 -3.0915956
3.3149683 -0.01446437 -3.0915956
3.3148737 -0.028928464 -3.0915956
3.3147161 -0.04339201 -3.0915956
3.3354919 -0.058221228 -3.0915956
3.3611999 -0.073341645 -3.0915956
3.5287905 -0.092404626 -3.0915956
3.5283537 -0.10780095 -3.0915956
3.5278497 -0.12319522 -3.0915956
3.4168937 -0.38930586 -3.0915956
3.4469407 -0.40797231 -3.0915956
3.4639862 -0.42532402 -3.0915956
3.4720173 -0.44169641 -3.0915956
3.470057 -0.45684168 -3.0915956
3.458122 -0.47062975 -3.0915956
3.5070856 0.825809 -3.2280371
3.3947053 0.78372949 -3.2280371
3.3571284 0.75964057 -3.2280371
3.2842598 0.72810286 -3.2280371
3.2786105 0.71185607 -3.2280371
3.2631004 0.69359338 -3.2280371
3.2660956 0.67934889 -3.2280371
3.2739284 0.66608828 -3.2280371
3.2768037 0.65179676 -3.2280371
3.2796164 0.63749284 -3.2280371
3.2823668 0.62317681 -3.2280371
3.263423 0.60483968 -3.2280371
3.2581587 0.58917105 -3.2280371
3.2587287 0.57460183 -3.2280371
3.2543061 0.55919206 -3.2280371
3.2488248 0.54366684 -3.2280371
3.249192 0.52916455 -3.2280371
3.2514701 0.51498228 -3.2280371
3.247756 0.49987745 -3.2280371
3.2469392 0.48525831 -3.2280371
3.2490256 0.47108626 -3.2280371
3.2391667 0.45523521 -3.2280371
3.2391405 0.4408277 -3.2280371
3.2410333 0.42669013 -3.2280371
3.2438562 0.41267064 -3.2280371
3.2366929 0.39741594 -3.2280371
3.2364101 0.38305438 -3.2280371
3.2380507 0.36892927 -3.2280371
3.2306831 0.35381734 -3.2280371
3.2252345 0.3389858 -3.2280371
3.2266829 0.3249099 -3.2280371
3.2280698 0.31082776 -3.2280371
3.2343745 0.29719725 -3.2280371
3.2356403 0.28308186 -3.2280371
3.2438207 0.26954073 -3.2280371
3.244966 0.25538436 -3.2280371
3.2460494 0.24122314 -3.2280371
3.2550516 0.22761537 -3.2280371
3.2580094 0.21354121 -3.2280371
3.2569139 0.19920139 -3.2280371
3.2577519 0.18498857 -3.2280371
3.2605255 0.17087689 -3.2280371
3.26124 0.15664859 -3.2280371
3.2529011 0.14202473 -3.2280371
3.2674789 0.1283796 -3.2280371
3.2540166 0.11363276 -3.2280371
3.2544813 0.0994334 -3.2280371
3.246887 0.085022725 -3.2280371
3.2592242 0.071116522 -3.2280371
3.2595036 0.056894846 -3.2280371
3.2637203 0.042724442 -3.2280371
3.2618759 0.028465958 -3.2280371
3.2619689 0.014233115 -3.2280371
3.2639999 0 -3.2280371
3.2689688 -0.014263658 -3.2280371
3.3318732 -0.029076817 -3.2280371
3.5406966 -0.046350259 -3.2280371
3.6714408 -0.064085238 -3.2280371
3.6711261 -0.080104254 -3.2280371
3.6707418 -0.096121751 -3.2280371
3.4069579 -0.38817382 -3.2280371
3.4429684 -0.40750214 -3.2280371
3.4411576 -0.42252102 -3.2280371
3.4392812 -0.43753183 -3.2280371
3.4373393 -0.45253432 -3.2280371
3.4313686 -0.46698877 -3.2280371
3.5450473 0.83474785 -3.3647501
3.3722949 0.77855557 -3.3647501
3.3503008 0.75809568 -3.3647501
3.2823071 0.72766995 -3.3647501
3.2698152 0.70994651 -3.3647501
3.2670131 0.69442505 -3.3647501
3.2700119 0.68016344 -3.3647501
3.2729485 0.66588891 -3.3647501
3.2630727 0.64906549 -3.3647501
3.2619472 0.6340583 -3.3647501
3.2627177 0.61944634 -3.3647501
3.2653894 0.60520416 -3.3647501
3.2522545 0.58810341 -3.3647501
3.2577441 0.5744282 -3.3647501
3.2602193 0.56020814 -3.3647501
3.2596738 0.54548234 -3.3647501
3.262023 0.53125417 -3.3647501
3.2643099 0.51701593 -3.3647501
3.2665348 0.5027678 -3.3647501
3.2499061 0.48570174 -3.3647501
3.2519944 0.47151676 -3.3647501
3.2480793 0.45648777 -3.3647501
3.2401314 0.44096255 -3.3647501
3.2142642 0.42316592 -3.3647501
3.21608 0.40913707 -3.3647501
3.2178347 0.39510041 -3.3647501
3.2264795 0.381879 -3.3647501
3.2320893 0.36825004 -3.3647501
3.2336652 0.35414395 -3.3647501
3.2421415 0.34076279 -3.3647501
3.2435973 0.32661307 -3.3647501
3.2439961 0.3123613 -3.3647501
3.2274039 0.29655674 -3.3647501
3.2465985 0.28404057 -3.3647501
3.247807 0.26987195 -3.3647501
3.2250276 0.25381517 -3.3647501
3.2310905 0.24011151 -3.3647501
3.2430806 0.2267783 -3.3647501
3.2440393 0.21262558 -3.3647501
3.2449362 0.1984688 -3.3647501
3.2497649 0.18453503 -3.3647501
3.2505391 0.17035353 -3.3647501
3.2512515 0.1561688 -3.3647501
3.2519019 0.14198111 -3.3647501
3.2524905 0.1277907 -3.3647501
3.2490196 0.11345826 -3.3647501
3.2494836 0.099280708 -3.3647501
3.2588828 0.085336849 -3.3647501
3.2572248 0.071072899 -3.3647501
3.2575037 0.05685994 -3.3647501
3.2697198 0.042802978 -3.3647501
3.2698755 0.02853577 -3.3647501
3.266969 0.014254931 -3.3647501
3.27 0 -3.3647501
3.2839687 -0.014329107 -3.3647501
3.2858748 -0.028675396 -3.3647501
3.3437135 -0.043771606 -3.3647501
3.5094655 -0.061257947 -3.3647501
3.5091648 -0.07657025 -3.3647501
3.5087972 -0.091881089 -3.3647501
3.4304883 -0.37569958 -3.3647501
3.4288166 -0.39066428 -3.3647501
3.4320445 -0.40620926 -3.3647501
3.433217 -0.42154607 -3.3647501
3.428369 -0.43614364 -3.3647501
3.4264333 -0.45109853 -3.3647501
3.9706185 0.89845926 -3.5017776
3.4883056 0.77333874 -3.5017776
3.4515803 0.74941152 -3.5017776
3.4548173 0.73434407 -3.5017776
3.4579885 0.71926266 -3.5017776
3.4855921 0.70915174 -3.5017776
3.4886532 0.69393629 -3.5017776
3.491648 0.6787076 -3.5017776
3.485734 0.66178727 -3.5017776
3.4266434 0.63509083 -3.5017776
3.4057648 0.61586261 -3.5017776
3.3188021 0.58519435 -3.5017776
3.2602193 0.56020814 -3.5017776
3.2547424 0.54465711 -3.5017776
3.2462311 0.52868229 -3.5017776
3.2238147 0.51060212 -3.5017776
3.2210701 0.49577013 -3.5017776
3.2232027 0.48171088 -3.5017776
3.2223048 0.46721199 -3.5017776
3.2272837 0.45356515 -3.5017776
3.2292321 0.43947917 -3.5017776
3.2192214 0.42381856 -3.5017776
3.22104 0.40976804 -3.5017776
3.2218049 0.39558789 -3.5017776
3.2165487 0.38070363 -3.5017776
3.2251341 0.36745763 -3.5017776
3.2356534 0.35436168 -3.5017776
3.2371688 0.34024015 -3.5017776
3.2386224 0.32611215 -3.5017776
3.2420053 0.31216961 -3.5017776
3.2602654 0.29957631 -3.5017776
3.2635338 0.28552222 -3.5017776
3.2647486 0.27127969 -3.5017776
3.2659011 0.25703201 -3.5017776
3.2280989 0.23988919 -3.5017776
3.2291148 0.22580171 -3.5017776
3.2300694 0.21170993 -3.5017776
3.2619045 0.19950663 -3.5017776
3.2627439 0.18527202 -3.5017776
3.2635214 0.1710339 -3.5017776
3.2652354 0.1568405 -3.5017776
3.2608933 0.14237368 -3.5017776
3.2564874 0.12794773 -3.5017776
3.2570148 0.11373746 -3.5017776
3.2574799 0.099525012 -3.5017776
3.2578833 0.085310675 -3.5017776
3.2502263 0.070920192 -3.5017776
3.2844996 0.057331156 -3.5017776
3.2847185 0.04299932 -3.5017776
3.2848749 0.02866667 -3.5017776
3.2739689 0.014285475 -3.5017776
3.2850001 0 -3.5017776
3.2919686 -0.014364014 -3.5017776
3.2928746 -0.028736481 -3.5017776
3.301717 -0.043221846 -3.5017776
3.3234937 -0.0580118 -3.5017776
3.3452036 -0.072992608 -3.5017776
3.4288247 -0.089786932 -3.5017776
3.4383955 -0.10505249 -3.5017776
3.4528954 -0.12057776 -3.5017776
3.4523363 -0.13564266 -3.5017776
3.4417212 -0.15026879 -3.5017776
3.4360385 -0.16504475 -3.5017776
3.4173102 -0.17909364 -3.5017776
3.4015205 -0.19315232 -3.5017776
3.3796844 -0.20671035 -3.5017776
3.3717654 -0.22099717 -3.5017776
3.370769 -0.23570712 -3.5017776
3.364722 -0.25004205 -3.5017776
3.3456545 -0.26330873 -3.5017776
3.2218962 -0.26771894 -3.5017776
3.2181158 -0.30986932 -3.5017776
3.4137371 -0.34374523 -3.5017776
3.4261279 -0.36010057 -3.5017776
3.4245241 -0.37504637 -3.5017776
3.4357715 -0.39145672 -3.5017776
3.4340308 -0.40644431 -3.5017776
3.4193215 -0.41983989 -3.5017776
3.4015849 -0.43273628 -3.5017776
3.2704229 0.92235464 -3.6391077
3.2676709 0.90620536 -3.6391077
3.2600164 0.8887825 -3.6391077
3.2619314 0.8740319 -3.6391077
3.2502415 0.85571712 -3.6391077
3.2529762 0.84127682 -3.6391077
3.2546773 0.82658273 -3.6391077
3.2553422 0.81164795 -3.6391077
3.2530246 0.79601008 -3.6391077
3.2564669 0.7818085 -3.6391077
3.2598472 0.76759213 -3.6391077
3.2573192 0.75201136 -3.6391077
3.2625201 0.73823291 -3.6391077
3.2637575 0.72355765 -3.6391077
3.256134 0.706976 -3.6391077
3.2513626 0.69109845 -3.6391077
3.2474937 0.67547971 -3.6391077
3.2504103 0.66130346 -3.6391077
3.2532647 0.64711457 -3.6391077
3.2560573 0.63291341 -3.6391077
3.2587879 0.61870021 -3.6391077
3.2624397 0.60465747 -3.6391077
3.2679992 0.59095049 -3.6391077
3.2606986 0.57494915 -3.6391077
3.2631762 0.56071621 -3.6391077
3.2734818 0.54779303 -3.6391077
3.262023 0.53125417 -3.6391077
3.2643099 0.51701593 -3.6391077
3.2714765 0.50352842 -3.6391077
3.2825437 0.49057943 -3.6391077
3.2846529 0.47625202 -3.6391077
3.2936316 0.46288973 -3.6391077
3.29562 0.44851419 -3.6391077
3.2975457 0.4341301 -3.6391077
3.2607203 0.41481602 -3.6391077
3.2287526 0.39644098 -3.6391077
3.2304516 0.38234916 -3.6391077
3.2320893 0.36825004 -3.6391077
3.2336652 0.35414395 -3.6391077
3.2351797 0.34003109 -3.6391077
3.2495673 0.32721421 -3.6391077
3.2459869 0.31255299 -3.6391077
3.2333786 0.29710576 -3.6391077
3.2485909 0.28421488 -3.6391077
3.2547829 0.27045161 -3.6391077
3.254935 0.25616896 -3.6391077
3.261008 0.24233477 -3.6391077
3.270015 0.22866172 -3.6391077
3.2689857 0.21426065 -3.6391077
3.2698896 0.19999501 -3.6391077
3.2707312 0.18572557 -3.6391077
3.2715104 0.1714526 -3.6391077
3.2722273 0.15717635 -3.6391077
3.2658887 0.14259177 -3.6391077
3.2664797 0.12834033 -3.6391077
3.2670085 0.11408646 -3.6391077
3.2574799 0.099525012 -3.6391077
3.2578833 0.085310675 -3.6391077
3.2582245 0.071094707 -3.6391077
3.2585037 0.056877393 -3.6391077
3.2707198 0.042816065 -3.6391077
3.2828751 0.028649217 -3.6391077
3.2829688 0.014324744 -3.6391077
3.3050001 0 -3.6391077
3.3129685 -0.014455643 -3.6391077
3.3148737 -0.028928464 -3.6391077
3.3147161 -0.04339201 -3.6391077
3.3254933 -0.058046702 -3.6391077
3.3252084 -0.072556309 -3.6391077
3.3248603 -0.087064527 -3.6391077
3.3974147 -0.10380041 -3.6391077
3.4209149 -0.11946098 -3.6391077
3.4703224 -0.13634934 -3.6391077
3.480684 -0.15196994 -3.6391077
3.4839833 -0.16734771 -3.6391077
3.4981992 -0.18333286 -3.6391077
3.4823902 -0.19774444 -3.6391077
3.4814942 -0.21293731 -3.6391077
3.4805319 -0.22812611 -3.6391077
3.4605496 -0.2419852 -3.6391077
3.4415104 -0.25574839 -3.6391077
3.437371 -0.27052698 -3.6391077
3.4301784 -0.28502586 -3.6391077
3.4289021 -0.29999006 -3.6391077
3.4245732 -0.31467408 -3.6391077
3.3962917 -0.32702571 -3.6391077
3.3828928 -0.34063941 -3.6391077
3.3933086 -0.35665113 -3.6391077
3.3917203 -0.37145379 -3.6391077
3.3781443 -0.38489091 -3.6391077
3.3764327 -0.39962715 -3.6391077
3.2530987 0.91746873 -3.7767363
3.2512891 0.90166229 -3.7767363
3.2542276 0.88720429 -3.7767363
3.2580678 0.87299663 -3.7767363
3.2618461 0.8587724 -3.7767363
3.2539442 0.84152716 -3.7767363
3.257585 0.82732123 -3.7767363
3.2601936 0.81285757 -3.7767363
3.259824 0.79767388 -3.7767363
3.267163 0.78437644 -3.7767363
3.2705543 0.77011329 -3.7767363
3.2738833 0.75583553 -3.7767363
3.2654462 0.738895 -3.7767363
3.2686391 0.72463983 -3.7767363
3.2541795 0.70655167 -3.7767363
3.2572315 0.69234592 -3.7767363
3.2572844 0.6775161 -3.7767363
3.2602096 0.66329712 -3.7767363
3.2679765 0.65004092 -3.7767363
3.2737267 0.63634801 -3.7767363
3.2735248 0.62149811 -3.7767363
3.2781718 0.60757327 -3.7767363
3.2788236 0.59290791 -3.7767363
3.2567592 0.57425451 -3.7767363
3.259234 0.56003881 -3.7767363
3.2616465 0.54581243 -3.7767363
3.25314 0.52980751 -3.7767363
3.2524576 0.51513869 -3.7767363
3.2576396 0.50139868 -3.7767363
3.2597964 0.48717982 -3.7767363
3.2668393 0.47366914 -3.7767363
3.2688749 0.4594104 -3.7767363
3.27283 0.44541264 -3.7767363
3.2757337 0.43125853 -3.7767363
3.2775843 0.4169614 -3.7767363
3.2684546 0.40131575 -3.7767363
3.2701745 0.38705066 -3.7767363
3.2569284 0.37108013 -3.7767363
3.2356534 0.35436168 -3.7767363
3.2371688 0.34024015 -3.7767363
3.2485721 0.32711402 -3.7767363
3.2499685 0.3129364 -3.7767363
3.2423408 0.29792926 -3.7767363
3.2436099 0.28377908 -3.7767363
3.2448173 0.26962352 -3.7767363
3.2459629 0.25546283 -3.7767363
3.2470467 0.24129725 -3.7767363
3.2440784 0.22684805 -3.7767363
3.2590072 0.21360663 -3.7767363
3.2449362 0.1984688 -3.7767363
3.2457714 0.18430825 -3.7767363
3.2475433 0.17019653 -3.7767363
3.2802181 0.15756017 -3.7767363
3.2598944 0.14233007 -3.7767363
3.2604845 0.12810478 -3.7767363
3.2849977 0.11471464 -3.7767363
3.2614782 0.099647172 -3.7767363
3.2618818 0.085415386 -3.7767363
3.2532256 0.070985638 -3.7767363
3.2605033 0.056912299 -3.7767363
3.2607207 0.04268517 -3.7767363
3.2718754 0.028553223 -3.7767363
3.2719688 0.014276748 -3.7767363
3.276 0 -3.7767363
3.2849686 -0.014333471 -3.7767363
3.306874 -0.028858652 -3.7767363
3.3067167 -0.043287292 -3.7767363
3.3194942 -0.057941988 -3.7767363
3.3202097 -0.072447233 -3.7767363
3.3368561 -0.087378651 -3.7767363
3.345439 -0.10221241 -3.7767363
3.3479593 -0.11691331 -3.7767363
3.3703995 -0.13242336 -3.7767363
3.3707888 -0.14717181 -3.7767363
3.3701146 -0.1618782 -3.7767363
3.3573925 -0.17595348 -3.7767363
3.3725672 -0.19150823 -3.7767363
3.3736956 -0.20634407 -3.7767363
3.3727632 -0.22106257 -3.7767363
3.3717666 -0.23577689 -3.7767363
3.3707056 -0.2504867 -3.7767363
3.3695805 -0.26519173 -3.7767363
3.3793535 -0.28080264 -3.7767363
3.3780961 -0.29554513 -3.7767363
3.3857367 -0.31110549 -3.7767363
3.3883286 -0.32625893 -3.7767363
3.4226916 -0.34464693 -3.7767363
3.4380622 -0.36135489 -3.7767363
3.4364529 -0.37635279 -3.7767363
3.434778 -0.3913435 -3.7767363
3.2715254 0.90727431 -3.9146039
3.2696643 0.89141279 -3.9146039
3.2638633 0.87454957 -3.9146039
3.2637801 0.8592816 -3.9146039
3.258785 0.8427791 -3.9146039
3.261462 0.82830584 -3.9146039
3.2524314 0.81092221 -3.9146039
3.2559385 0.79672313 -3.9146039
3.2593839 0.78250885 -3.9146039
3.2627673 0.76827973 -3.9146039
3.2660885 0.75403595 -3.9146039
3.2664213 0.73911572 -3.9146039
3.2657101 0.7239905 -3.9146039
3.256134 0.706976 -3.9146039
3.2572315 0.69234592 -3.9146039
3.2572844 0.6775161 -3.9146039
3.2582498 0.66289836 -3.9146039
3.2591496 0.64828515 -3.9146039
3.2619472 0.6340583 -3.9146039
3.2617354 0.61925977 -3.9146039
3.2644062 0.60502195 -3.9146039
3.2670152 0.59077257 -3.9146039
3.2606986 0.57494915 -3.9146039
3.2631762 0.56071621 -3.9146039
3.2655916 0.54647261 -3.9146039
3.2679451 0.53221864 -3.9146039
3.2712238 0.51811093 -3.9146039
3.2783952 0.50459325 -3.9146039
3.3003459 0.49324 -3.9146039
3.3103838 0.47998282 -3.9146039
3.3045247 0.46442065 -3.9146039
3.3065195 0.44999754 -3.9146039
3.2668109 0.43008381 -3.9146039
3.2408803 0.41229203 -3.9146039
3.2357004 0.39729407 -3.9146039
3.2344239 0.38281929 -3.9146039
3.2291086 0.36791044 -3.9146039
3.2376416 0.35457942 -3.9146039
3.2391579 0.34044921 -3.9146039
3.2406125 0.32631251 -3.9146039
3.2658949 0.3144699 -3.9146039
3.267236 0.30021682 -3.9146039
3.2515795 0.28447634 -3.9146039
3.2527897 0.27028599 -3.9146039
3.2649043 0.25695354 -3.9146039
3.2659943 0.2427053 -3.9146039
3.2670224 0.22845244 -3.9146039
3.2879453 0.21550331 -3.9146039
3.2888541 0.20115493 -3.9146039
3.2897005 0.18680273 -3.9146039
3.2904844 0.17244698 -3.9146039
3.2902067 0.15803996 -3.9146039
3.2908649 0.14368226 -3.9146039
3.2794697 0.12885071 -3.9146039
3.2929928 0.11499384 -3.9146039
3.2804692 0.1002274 -3.9146039
3.2988691 0.086383931 -3.9146039
3.2842183 0.071661897 -3.9146039
3.301497 0.057627846 -3.9146039
3.301717 0.043221846 -3.9146039
3.3018742 0.02881502 -3.9146039
3.2939687 0.014372741 -3.9146039
3.302 0 -3.9146039
3.3069685 -0.014429464 -3.9146039
3.2938745 -0.028745208 -3.9146039
3.3207154 -0.043470547 -3.9146039
3.3354919 -0.058221228 -3.9146039
3.3372056 -0.072818086 -3.9146039
3.3368561 -0.087378651 -3.9146039
3.3554342 -0.10251779 -3.9146039
3.3579531 -0.11726231 -3.9146039
3.3574095 -0.13191298 -3.9146039
3.3538048 -0.14643028 -3.9146039
3.3531339 -0.16106258 -3.9146039
3.4408307 0.74707758 -4.0526576
3.3159204 0.70482063 -4.0526576
3.2670748 0.6795525 -4.0526576
3.2651091 0.66429394 -4.0526576
3.2650342 0.64945567 -4.0526576
3.2668552 0.63501233 -4.0526576
3.2538757 0.61776763 -4.0526576
3.2565403 0.60356408 -4.0526576
3.2542226 0.58845931 -4.0526576
3.25282 0.57355994 -4.0526576
3.259234 0.56003881 -4.0526576
3.2586877 0.54531729 -4.0526576
3.2600491 0.53093266 -4.0526576
3.2623346 0.51670301 -4.0526576
3.2655463 0.50261569 -4.0526576
3.2607853 0.48732764 -4.0526576
3.2618909 0.47295168 -4.0526576
3.2639236 0.45871454 -4.0526576
3.2658939 0.44446868 -4.0526576
3.2678022 0.43021432 -4.0526576
3.2696483 0.41595179 -4.0526576
3.2565439 0.39985332 -4.0526576
3.2582576 0.3856402 -4.0526576
3.2599092 0.37141976 -4.0526576
3.2853563 0.35980502 -4.0526576
3.2868948 0.34546658 -4.0526576
3.3023005 0.33252418 -4.0526576
3.30372 0.31811205 -4.0526576
3.3050766 0.30369386 -4.0526576
3.3093588 0.28953138 -4.0526576
3.3046112 0.27459201 -4.0526576
3.3057778 0.26017037 -4.0526576
3.3068817 0.24574375 -4.0526576
3.3079224 0.23131247 -4.0526576
3.3089001 0.21687678 -4.0526576
3.3307757 0.20371898 -4.0526576
3.3605864 0.19082792 -4.0526576
3.361387 0.17616282 -4.0526576
3.3791041 0.16231 -4.0526576
3.3877726 0.14791334 -4.0526576
3.389385 0.13316929 -4.0526576
3.3899336 0.11837909 -4.0526576
3.4004133 0.10389202 -4.0526576
3.4068322 0.089211039 -4.0526576
3.4251847 0.074737795 -4.0526576
3.4254782 0.059791945 -4.0526576
3.4287062 0.044884223 -4.0526576
3.4308693 0.029940743 -4.0526576
3.4389672 0.015005421 -4.0526576
3.454 0 -4.0526576
3.4539671 -0.015070871 -4.0526576
3.4588683 -0.030185087 -4.0526576
3.4807017 -0.045564882 -4.0526576
3.6044509 -0.062915929 -4.0526576
3.6221378 -0.079035327 -4.0526576
3.6827376 -0.096435875 -4.0526576
3.6822817 -0.11250389 -4.0526576
3.6817558 -0.12856975 -4.0526576
3.8811197 0.66689837 -4.1908484
3.8839927 0.64995748 -4.1908484
3.8818567 0.63220054 -4.1908484
3.8845782 0.61525673 -4.1908484
3.8872259 0.59830129 -4.1908484
3.8284805 0.57217026 -4.1908484
3.7230685 0.53981924 -4.1908484
3.6996415 0.51995069 -4.1908484
3.6949389 0.50285912 -4.1908484
3.6970978 0.48673218 -4.1908484
3.6991866 0.47059596 -4.1908484
3.7260182 0.45749751 -4.1908484
3.7686949 0.44605443 -4.1908484
3.829226 0.4362852 -4.1908484
3.8629029 0.42305666 -4.1908484
3.9194107 0.41194668 -4.1908484
4.0156927 0.40435901 -4.1908484
4.0174189 0.38683346 -4.1908484
4.0190687 0.36930054 -4.1908484
