Parameter Value
X_min      2.0
X_max      4.5
Y_min      -2.0
Y_max      2.0

Slope      0.0
interval   0.0

Cluster_min 100

mean  50.0
dev   1.0

Velocity_Prueba 1.6
Cluster_tolerance 0.5
Cluster_max 500000

divisor 1.0
bloque  0.0
